date,fuel,beverage,food,pesodollar,rice,coconut oil,beverage
1997.79,28.78,74.26,61.25,34.46,265.75,74.26,74.26
1997.874,27.58,72.89,62.25,34.52,252.50,72.89,72.89
1997.958,24.43,77.61,61.24,37.17,269.67,77.61,77.61
1998.042,21.89,77.59,60.72,42.66,288.00,77.59,77.59
1998.123,21.16,77.55,60.62,40.41,297.25,77.55,77.55
1998.204,20.05,72.88,59.7,39.00,296.00,72.88,72.88
1998.288,20.61,72.17,60.8,38.44,311.50,72.17,72.17
1998.371,20.74,69.76,60.03,39.30,318.25,69.76,69.76
1998.455,19.10,65.04,57.98,40.40,325.50,65.04,65.04
1998.538,19.27,63.33,57.39,41.78,324.25,63.33,63.33
1998.623,18.43,64.06,54.94,43.04,321.40,64.06,64.06
1998.707,20.07,61.75,54.76,43.78,321.25,61.75,61.75
1998.79,19.25,60.74,55.38,42.89,298.75,60.74,60.74
1998.874,17.99,61.01,57.08,39.94,270.00,61.01,61.01
1998.958,15.93,60.22,55.36,39.07,277.75,60.22,60.22
1999.042,17.14,58.74,55.12,38.40,299.75,58.74,58.74
1999.123,16.28,55.83,51.64,38.78,280.00,55.83,55.83
1999.204,18.86,53.66,49.8,38.91,256.20,53.66,53.66
1999.288,22.18,51.58,48.97,38.24,235.50,51.58,51.58
1999.371,22.54,53.00,48.07,37.84,244.25,53,53
1999.455,22.97,52.41,46.88,37.90,253.80,52.41,52.41
1999.538,25.81,49.60,44.68,38.28,259.00,49.6,49.6
1999.623,27.86,47.36,46.92,39.26,244.50,47.36,47.36
1999.707,30.21,47.49,47.82,40.17,229.25,47.49,47.49
1999.79,29.77,48.99,47.18,40.32,217.00,48.99,48.99
1999.874,31.68,51.28,46.31,40.34,228.00,51.28,51.28
1999.958,32.77,53.20,45.99,40.62,233.75,53.2,53.2
2000.042,33.45,48.99,47.59,40.43,241.40,48.99,48.99
2000.124,35.85,46.07,48.01,40.57,241.00,46.07,46.07
2000.206,36.37,45.69,47.15,40.94,225.75,45.69,45.69
2000.29,32.48,44.40,47.93,41.19,214.75,44.4,44.4
2000.373,37.12,45.55,47.63,41.81,198.60,45.55,45.55
2000.456,40.69,43.57,46.59,42.65,196.00,43.57,43.57
2000.54,38.92,44.84,44.95,44.36,189.00,44.84,44.84
2000.624,40.69,41.07,45.18,44.90,186.50,41.07,41.07
2000.708,44.65,40.95,46.07,45.74,179.00,40.95,40.95
2000.791,44.02,40.30,46.48,48.11,187.50,40.3,40.3
2000.874,45.75,38.52,46.87,49.75,185.00,38.52,38.52
2000.958,42.76,37.25,48.67,49.90,184.25,37.25,37.25
2001.042,42.71,38.99,48.76,50.97,184.40,38.99,38.99
2001.123,40.72,37.04,47.9,48.29,184.50,37.04,37.04
2001.204,37.75,38.74,47.18,48.47,175.00,38.74,38.74
2001.288,38.50,38.07,46.51,50.19,163.75,38.07,38.07
2001.371,39.14,38.66,47.54,50.54,164.33,38.66,38.66
2001.455,37.86,36.51,48.26,51.49,168.00,36.51,36.51
2001.538,34.45,35.72,51.95,53.22,169.40,35.72,35.72
2001.623,35.35,35.85,51.76,51.99,168.25,35.85,35.85
2001.707,33.60,34.94,49.27,51.25,173.00,34.94,34.94
2001.79,29.05,34.77,46.61,51.73,170.60,34.77,34.77
2001.874,26.56,37.25,48.16,51.99,173.50,37.25,37.25
2001.958,26.31,38.27,48.11,51.79,179.33,38.27,38.27
2002.042,26.60,38.69,48.16,51.41,191.75,38.69,38.69
2002.123,27.57,40.19,47.57,51.28,195.33,40.19,40.19
2002.204,32.38,42.77,48.48,51.07,189.00,42.77,42.77
2002.288,34.69,43.02,48.43,50.99,190.20,43.02,43.02
2002.371,35.04,42.46,49.36,49.84,197.50,42.46,42.46
2002.455,33.37,43.08,50.95,50.41,202.67,43.08,43.08
2002.538,34.39,45.46,52.38,50.60,199.60,45.46,45.46
2002.623,35.60,45.63,52.96,51.79,190.33,45.63,45.63
2002.707,37.90,50.07,54.65,52.13,186.60,50.07,50.07
2002.79,38.01,51.62,54.7,52.91,186.25,51.62,51.62
2002.874,34.74,48.04,54.03,53.31,186.75,48.04,48.04
2002.958,39.24,49.35,54.87,53.52,186.50,49.35,49.35
2003.042,43.34,51.96,54.9,53.56,200.75,51.96,51.96
2003.123,48.77,52.99,54.52,54.07,198.75,52.99,52.99
2003.204,43.67,47.28,54.01,54.59,197.00,47.28,47.28
2003.288,37.78,47.87,53.37,52.81,195.00,47.87,47.87
2003.371,39.04,46.11,53.41,52.51,198.00,46.11,46.11
2003.455,40.98,42.95,53.28,53.40,203.40,42.95,42.95
2003.538,40.70,44.13,51.9,53.71,198.50,44.13,44.13
2003.623,41.82,43.76,53.12,54.99,195.00,43.76,43.76
2003.707,38.43,45.33,55.1,55.02,197.60,45.33,45.33
2003.79,40.73,43.37,59.03,54.95,195.75,43.37,43.37
2003.874,40.83,42.83,61.08,55.37,193.40,42.83,42.83
2003.958,44.06,45.04,61.16,55.45,198.25,45.04,45.04
2004.042,45.64,46.76,63.21,55.53,212.75,46.76,46.76
2004.124,44.87,46.49,65.37,56.07,213.25,46.49,46.49
2004.206,47.72,45.71,68.96,56.30,237.80,45.71,45.71
2004.29,48.42,45.38,68.32,55.90,240.75,45.38,45.38
2004.373,53.51,45.44,66.17,55.85,232.00,45.44,45.44
2004.456,51.46,46.66,63.49,55.98,229.00,46.66,46.66
2004.54,53.75,46.97,61.78,55.95,230.75,46.97,46.97
2004.624,57.47,48.75,60.57,55.83,239.00,48.75,48.75
2004.708,56.49,48.09,60.09,56.21,235.25,48.09,48.09
2004.791,64.09,46.93,58.95,56.34,244.00,46.93,46.93
2004.874,58.46,50.89,58.76,56.32,259.20,50.89,50.89
2004.958,55.82,53.60,59.03,56.18,278.25,53.6,53.6
2005.042,59.72,52.26,59.32,55.77,287.00,52.26,52.26
2005.123,61.56,56.11,61.23,54.81,290.00,56.11,56.11
2005.204,69.25,61.15,64.62,54.44,292.75,61.15,61.15
2005.288,69.37,59.15,62.7,54.49,297.25,59.15,59.15
2005.371,65.48,57.96,62.1,54.34,293.80,57.96,57.96
2005.455,72.90,57.72,61.58,55.18,285.00,57.72,57.72
2005.538,76.41,55.09,61.15,56.01,276.75,55.09,55.09
2005.623,84.94,53.71,60.2,55.95,282.80,53.71,53.71
2005.707,88.81,51.79,61.18,56.16,285.25,51.79,51.79
2005.79,86.14,52.53,62.35,55.71,286.40,52.53,52.53
2005.874,78.63,53.09,61.37,54.56,277.75,53.09,53.09
2005.958,83.26,54.11,62.85,53.61,280.50,54.11,54.11
2006.042,84.74,59.41,63.85,52.62,291.25,59.41,59.41
2006.123,80.51,59.46,66.62,51.82,301.50,59.46,59.46
2006.204,81.15,56.99,65.2,51.22,303.50,56.99,56.99
2006.288,89.22,58.39,65.16,51.36,302.25,58.39,58.39
2006.371,88.81,57.73,67.43,52.13,308.00,57.73,57.73
2006.455,88.40,57.27,65.08,53.16,312.50,57.27,57.27
2006.538,93.07,59.15,66.52,52.40,315.40,59.15,59.15
2006.623,93.37,60.53,66.2,51.36,312.67,60.53,60.53
2006.707,80.09,59.73,66.1,50.40,309.20,59.73,59.73
2006.79,76.95,58.85,69.1,50.00,301.00,58.85,58.85
2006.874,79.26,61.38,72.28,49.84,296.25,61.38,61.38
2006.958,81.31,64.23,72.6,49.47,305.00,64.23,64.23
2007.042,73.21,63.48,73.18,48.91,313.00,63.48,63.48
2007.123,79.39,64.33,75.47,48.38,315.00,64.33,64.33
2007.204,81.55,64.41,75.17,48.52,318.67,64.41,64.41
2007.288,86.79,66.17,75.37,47.82,316.50,66.17,66.17
2007.371,86.92,66.53,77.6,46.81,317.60,66.53,66.53
2007.455,90.04,69.70,81.57,46.16,323.25,69.7,69.7
2007.538,94.75,71.37,83.07,45.63,328.80,71.37,71.37
2007.623,91.23,68.40,84.59,46.07,327.50,68.4,68.4
2007.707,98.29,70.68,89.21,46.13,325.00,70.68,70.68
2007.79,105.43,72.05,92.35,44.38,329.20,72.05,72.05
2007.874,116.56,72.05,95.97,43.22,342.00,72.05,72.05
2007.958,114.95,75.44,100.27,41.74,360.67,75.44,75.44
2008.042,118.02,78.27,106.13,40.94,375.60,78.27,78.27
2008.124,123.63,87.17,115.44,40.67,464.75,87.17,87.17
2008.206,133.28,88.44,123.11,41.25,594.00,88.44,88.44
2008.29,142.49,85.39,125.63,41.82,907.00,85.39,85.39
2008.373,159.36,86.19,126.03,42.90,901.80,86.19,86.19
2008.456,172.17,92.12,130.46,44.28,757.00,92.12,92.12
2008.54,173.43,92.97,127.78,44.96,731.75,92.97,92.97
2008.624,149.29,90.58,115.67,44.88,693.50,90.58,90.58
2008.708,132.41,87.25,108.6,46.69,683.80,87.25,87.25
2008.791,100.92,74.41,90.01,48.03,609.25,74.41,74.41
2008.874,80.02,69.73,84.14,49.19,552.00,69.73,69.73
2008.958,64.46,71.90,80.68,48.09,531.80,71.9,71.9
2009.042,65.56,77.94,87.6,47.21,580.00,77.94,77.94
2009.123,60.65,77.79,86.83,47.58,590.75,77.79,77.79
2009.204,64.22,76.00,86.24,48.46,588.25,76,76
2009.288,66.32,79.35,90.19,48.22,549.67,79.35,79.35
2009.371,74.93,82.55,96.9,47.52,533.00,82.55,82.55
2009.455,86.92,85.22,97.85,47.91,574.50,85.22,85.22
2009.538,81.07,85.47,92.42,48.15,572.00,85.47,85.47
2009.623,88.28,89.32,94.9,48.16,526.25,89.32,89.32
2009.707,84.45,92.46,92.39,48.14,518.75,92.46,92.46
2009.79,92.43,95.45,93.16,46.85,493.00,95.45,95.45
2009.874,96.18,94.82,96.4,47.03,542.75,94.82,94.82
2009.958,95.86,96.80,97.16,46.42,591.00,96.8,96.8
2010.042,99.92,96.83,98.34,46.03,568.80,96.83,96.83
2010.123,96.68,93.16,94.9,46.31,535.00,93.16,93.16
2010.204,100.24,90.71,91.91,45.74,502.20,90.71,90.71
2010.288,104.68,94.58,91.32,44.63,466.00,94.58,94.58
2010.371,95.61,94.85,90.02,45.60,451.33,94.85,94.85
2010.455,95.57,98.99,89.17,46.30,440.00,98.99,98.99
2010.538,95.31,103.16,93.74,46.32,441.80,103.16,103.16
2010.623,96.14,103.29,99.4,45.18,452.75,103.29,103.29
2010.707,96.06,102.85,104.71,44.31,476.50,102.85,102.85
2010.79,101.57,103.27,110.67,43.44,486.00,103.27,103.27
2010.874,105.56,106.77,115.01,43.49,514.50,106.77,106.77
2010.958,112.67,111.57,120.82,43.95,532.00,111.57,111.57
2011.042,117.04,116.40,125.91,44.17,516.80,116.4,116.4
2011.123,121.81,124.63,129.49,43.70,524.00,124.63,124.63
2011.204,133.09,124.81,123.42,43.52,492.75,124.81,124.81
2011.288,141.94,124.74,125,43.24,484.25,124.74,124.74
2011.371,133.14,122.49,123.32,43.13,481.40,122.49,122.49
2011.455,131.17,118.79,123.67,43.37,513.75,118.79,118.79
2011.538,133.73,119.15,123.82,42.81,538.25,119.15,119.15
2011.623,125.22,117.82,125.08,42.42,566.00,117.82,117.82
2011.707,125.51,114.83,123.58,43.03,598.75,114.83,114.83
2011.79,124.17,106.69,117.43,43.45,599.40,106.69,106.69
2011.874,129.40,103.59,116.45,43.27,615.25,103.59,103.59
2011.958,128.02,97.76,113.41,43.65,585.75,97.76,97.76
2012.042,130.63,98.71,115.68,43.62,542.00,98.71,98.71
2012.124,136.24,97.00,119.13,42.66,537.50,97,97
2012.206,141.24,92.19,122.71,42.86,548.00,92.19,92.19
2012.29,136.12,91.30,123.15,42.70,547.75,91.3,91.3
2012.373,126.28,92.52,120.93,42.85,600.50,92.52,92.52
2012.456,111.53,88.69,120.16,42.78,600.00,88.69,88.69
2012.54,118.55,94.19,132.52,41.91,573.75,94.19,94.19
2012.624,127.65,93.71,133.22,42.05,567.75,93.71,93.71
2012.708,128.53,95.46,131.62,41.75,563.25,95.46,95.46
2012.791,125.88,91.95,126.87,41.45,558.25,91.95,91.95
2012.874,124.08,88.86,124.6,41.12,559.25,88.86,88.86
2012.958,124.18,87.02,123.21,41.01,557.80,87.02,87.02
2013.042,128.42,86.17,121.79,40.73,564.20,86.17,86.17
2013.123,131.21,83.89,121.41,40.67,563.00,83.89,83.89
2013.204,126.24,83.54,119.02,40.71,559.00,83.54,83.54
2013.288,123.13,84.59,115.31,41.14,557.00,84.59,84.59
2013.371,123.22,84.76,118.32,41.30,543.50,84.76,84.76
2013.455,122.94,80.65,118.59,42.91,524.25,80.65,80.65
2013.538,128.11,81.51,115.85,43.36,509.00,81.51,81.51
2013.623,130.93,82.53,112.14,43.86,478.75,82.53,82.53
2013.707,131.60,82.60,111.49,43.83,444.00,82.6,82.6
2013.79,128.29,83.06,112.01,43.18,439.00,83.06,83.06
2013.874,125.40,81.51,111.17,43.55,438.00,81.51,81.51
2013.958,129.51,84.78,110.47,44.10,451.00,84.78,84.78
2014.042,126.38,85.80,108.75,44.93,450.00,85.8,85.8
2014.123,130.57,94.55,112.97,44.90,459.00,94.55,94.55
2014.204,127.93,103.23,113.71,44.79,422.00,103.23,103.23
2014.288,128.41,106.13,112.14,44.64,395.00,106.13,106.13
2014.371,128.96,105.07,112.54,43.92,388.00,105.07,105.07
2014.455,131.48,103.14,109.81,43.82,397.00,103.14,103.14
2014.538,126.93,104.28,106.58,43.47,422.00,104.28,104.28
2014.623,121.20,106.86,105.64,43.77,445.00,106.86,106.86
2014.707,116.62,104.85,101.25,44.08,432.00,104.85,104.85
2014.79,106.20,106.82,100.69,44.80,428.00,106.82,106.82
2014.874,96.38,101.43,103.04,44.95,418.00,101.43,101.43
2014.958,78.55,99.02,101.47,44.69,418.00,99.02,99.02
2015.042,63.06,96.65,98.87,44.60,420.00,96.65,96.65
2015.123,70.44,94.35,96.57,44.22,420.00,94.35,94.35
2015.204,68.14,89.07,94.03,44.45,410.00,89.07,89.07
2015.288,72.21,91.21,93.08,44.41,399.00,91.21,91.21
2015.371,77.79,93.37,91.11,44.61,381.00,93.37,93.37
2015.455,76.35,96.22,90.75,44.98,376.00,96.22,96.22
2015.538,68.82,96.40,92.28,45.26,392.00,96.4,96.4
2015.623,59.49,93.93,87.88,46.14,373.00,93.93,93.93
2015.707,59.70,91.77,86.23,46.75,357.00,91.77,91.77
2015.79,59.71,92.86,87.6,46.36,373.00,92.86,92.86
2015.874,55.17,93.57,86.13,47.01,368.00,93.57,93.57
2015.958,47.84,92.95,85.95,47.23,363.00,92.95,92.95
2016.042,40.50,85.71,85.14,47.51,369.00,85.71,85.71
2016.124,41.24,84.57,86.53,47.64,384.00,84.57,84.57
2016.206,47.34,88.23,88.35,46.72,384.00,88.23,88.23
2016.288,51.07,89.63,90.86,46.28,395.00,89.63,89.63
2016.373,56.58,90.79,94.94,46.80,433.00,90.79,90.79
2016.455,59.43,93.77,98.86,46.46,441.00,93.77,93.77
2016.54,56.56,95.20,95.85,47.06,442.00,95.2,95.2
2016.624,57.61,94.10,94.51,46.68,415.00,94.1,94.1
2016.706,58.18,94.85,93.59,47.43,384.00,94.85,94.85
2016.791,63.70,94.62,92.83,48.35,369.00,94.62,94.62
2016.873,59.43,93.76,93.24,49.16,365.00,93.76,93.76
2016.958,68.38,87.08,93.06,49.82,373.00,87.08,87.08
2017.042,68.89,88.28,95.16,49.74,377.00,88.28,88.28
2017.122,69.41,85.01,95.14,49.96,367.00,85.01,85.01
2017.204,65.32,84.35,92.73,50.28,370.00,84.35,84.35
2017.286,67.11,82.96,90.8,49.86,380.00,82.96,82.96
2017.371,64.34,82.32,92.91,49.86,421.00,82.32,82.32
2017.453,60.43,81.87,91.89,49.85,458.00,81.87,81.87
2017.538,62.26,83.18,92.58,50.64,417.00,83.18,83.18
2017.623,65.02,82.97,89.45,50.87,393.00,82.97,82.97
2017.705,68.50,82.16,91.15,51.01,402.00,82.16,82.16
2017.79,70.79,82.39,91.02,51.34,394.00,82.39,82.39
