val
28.78
27.58
24.43
21.89
21.16
20.05
20.61
20.74
19.1
19.27
18.43
20.07
19.25
17.99
15.93
17.14
16.28
18.86
22.18
22.54
22.97
25.81
27.86
30.21
29.77
31.68
32.77
33.45
35.85
36.37
32.48
37.12
40.69
38.92
40.69
44.65
44.02
45.75
42.76
42.71
40.72
37.75
38.5
39.14
37.86
34.45
35.35
33.6
29.05
26.56
26.31
26.6
27.57
32.38
34.69
35.04
33.37
34.39
35.6
37.9
38.01
34.74
39.24
43.34
48.77
43.67
37.78
39.04
40.98
40.7
41.82
38.43
40.73
40.83
44.06
45.64
44.87
47.72
48.42
53.51
51.46
53.75
57.47
56.49
64.09
58.46
55.82
59.72
61.56
69.25
69.37
65.48
72.9
76.41
84.94
88.81
86.14
78.63
83.26
84.74
80.51
81.15
89.22
88.81
88.4
93.07
93.37
80.09
76.95
79.26
81.31
73.21
79.39
81.55
86.79
86.92
90.04
94.75
91.23
98.29
105.43
116.56
114.95
118.02
123.63
133.28
142.49
159.36
172.17
173.43
149.29
132.41
100.92
80.02
64.46
65.56
60.65
64.22
66.32
74.93
86.92
81.07
88.28
84.45
92.43
96.18
95.86
99.92
96.68
100.24
104.68
95.61
95.57
95.31
96.14
96.06
101.57
105.56
112.67
117.04
121.81
133.09
141.94
133.14
131.17
133.73
125.22
125.51
124.17
129.4
128.02
130.63
136.24
141.24
136.12
126.28
111.53
118.55
127.65
128.53
125.88
124.08
124.18
128.42
131.21
126.24
123.13
123.22
122.94
128.11
130.93
131.6
128.29
125.4
129.51
126.38
130.57
127.93
128.41
128.96
131.48
126.93
121.2
116.62
106.2
96.38
78.55
63.06
70.44
68.14
72.21
77.79
76.35
68.82
59.49
59.7
59.71
55.17
47.84
40.5
41.24
47.34
51.07
56.58
59.43
56.56
57.61
58.18
63.7
59.43
68.38
68.89
69.41
65.32
67.11
64.34
60.43
62.26
65.02
68.5
70.79
