val
34.4639
34.5178
37.1706
42.6610
40.4143
39.0040
38.4422
39.2971
40.3991
41.7805
43.0375
43.7759
42.8882
39.9435
39.0733
38.4043
38.7799
38.9108
38.2417
37.8385
37.8993
38.2798
39.2610
40.1738
40.3150
40.3409
40.6232
40.4266
40.5717
40.9381
41.1884
41.8063
42.6489
44.3557
44.8977
45.7367
48.1061
49.7537
49.8962
50.9693
48.2897
48.4673
50.1854
50.5389
51.4881
53.2242
51.9877
51.2499
51.7333
51.9899
51.7889
51.4097
51.2817
51.0661
50.9872
49.8383
50.4065
50.5963
51.7931
52.1292
52.9070
53.3082
53.5195
53.5635
54.0748
54.5909
52.8068
52.5072
53.3992
53.7138
54.9914
55.0235
54.9520
55.3718
55.4451
55.5261
56.0696
56.3029
55.9039
55.8453
55.9848
55.9527
55.8342
56.2132
56.3414
56.3221
56.1828
55.7662
54.8128
54.4402
54.4918
54.3411
55.1790
56.0062
55.9523
56.1562
55.7077
54.5606
53.6118
52.6171
51.8168
51.2189
51.3597
52.1273
53.1567
52.3976
51.3618
50.4012
50.0038
49.8434
49.4670
48.9143
48.3814
48.5172
47.8224
46.8141
46.1602
45.6251
46.0737
46.1315
44.3803
43.2176
41.7429
40.9381
40.6711
41.2524
41.8196
42.9020
44.2806
44.9563
44.8769
46.6922
48.0252
49.1862
48.0942
47.2072
47.5846
48.4580
48.2165
47.5242
47.9053
48.1460
48.1607
48.1394
46.8513
47.0324
46.4211
46.0276
46.3116
45.7425
44.6266
45.5971
46.3027
46.3203
45.1825
44.3137
43.4449
43.4918
43.9548
44.1722
43.7031
43.5160
43.2402
43.1307
43.3657
42.8088
42.4209
43.0256
43.4514
43.2745
43.6486
43.6191
42.6608
42.8574
42.6998
42.8515
42.7765
41.9054
42.0452
41.7490
41.4521
41.1222
41.0067
40.7295
40.6723
40.7127
41.1422
41.2976
42.9069
43.3559
43.8639
43.8318
43.1825
43.5546
44.1043
44.9266
44.8950
44.7916
44.6416
43.9236
43.8175
43.4665
43.7673
44.0751
44.7979
44.9514
44.6878
44.6044
44.2214
44.4457
44.4136
44.6106
44.9831
45.2649
46.1420
46.7504
46.3609
47.0067
47.2303
47.5111
47.6361
46.7240
46.2845
46.8023
46.4645
47.0581
46.6809
47.4294
48.3482
49.1550
49.8156
49.7363
49.9614
50.2752
49.8626
49.8603
49.8501
50.6382
50.8747
51.0094
51.3433
